{
  "page": 1,
  "photos": [
    {
      "id": 238118,
      "src": {
        "tiny": "https://images.pexels.com/photos/238118/pexels-photo-238118.jpeg?auto=compress\u0026cs=tinysrgb\u0026dpr=1\u0026fit=crop\u0026h=200\u0026w=280",
        "large": "https://images.pexels.com/photos/238118/pexels-photo-238118.jpeg?auto=compress\u0026cs=tinysrgb\u0026h=650\u0026w=940",
        "small": "https://images.pexels.com/photos/238118/pexels-photo-238118.jpeg?auto=compress\u0026cs=tinysrgb\u0026h=130",
        "medium": "https://images.pexels.com/photos/238118/pexels-photo-238118.jpeg?auto=compress\u0026cs=tinysrgb\u0026h=350",
        "large2x": "https://images.pexels.com/photos/238118/pexels-photo-238118.jpeg?auto=compress\u0026cs=tinysrgb\u0026dpr=2\u0026h=650\u0026w=940",
        "original": "https://images.pexels.com/photos/238118/pexels-photo-238118.jpeg",
        "portrait": "https://images.pexels.com/photos/238118/pexels-photo-238118.jpeg?auto=compress\u0026cs=tinysrgb\u0026fit=crop\u0026h=1200\u0026w=800",
        "landscape": "https://images.pexels.com/photos/238118/pexels-photo-238118.jpeg?auto=compress\u0026cs=tinysrgb\u0026fit=crop\u0026h=627\u0026w=1200"
      },
      "url": "https://www.pexels.com/photo/computer-desk-electronics-keyboard-238118/",
      "liked": false,
      "width": 4000,
      "height": 2682,
      "photographer": "JÉSHOOTS",
      "photographer_id": 2662,
      "photographer_url": "https://www.pexels.com/@jeshoots"
    },
    {
      "id": 461077,
      "src": {
        "tiny": "https://images.pexels.com/photos/461077/pexels-photo-461077.jpeg?auto=compress\u0026cs=tinysrgb\u0026dpr=1\u0026fit=crop\u0026h=200\u0026w=280",
        "large": "https://images.pexels.com/photos/461077/pexels-photo-461077.jpeg?auto=compress\u0026cs=tinysrgb\u0026h=650\u0026w=940",
        "small": "https://images.pexels.com/photos/461077/pexels-photo-461077.jpeg?auto=compress\u0026cs=tinysrgb\u0026h=130",
        "medium": "https://images.pexels.com/photos/461077/pexels-photo-461077.jpeg?auto=compress\u0026cs=tinysrgb\u0026h=350",
        "large2x": "https://images.pexels.com/photos/461077/pexels-photo-461077.jpeg?auto=compress\u0026cs=tinysrgb\u0026dpr=2\u0026h=650\u0026w=940",
        "original": "https://images.pexels.com/photos/461077/pexels-photo-461077.jpeg",
        "portrait": "https://images.pexels.com/photos/461077/pexels-photo-461077.jpeg?auto=compress\u0026cs=tinysrgb\u0026fit=crop\u0026h=1200\u0026w=800",
        "landscape": "https://images.pexels.com/photos/461077/pexels-photo-461077.jpeg?auto=compress\u0026cs=tinysrgb\u0026fit=crop\u0026h=627\u0026w=1200"
      },
      "url": "https://www.pexels.com/photo/ballpen-blur-close-up-computer-461077/",
      "liked": false,
      "width": 4000,
      "height": 2667,
      "photographer": "picjumbo.com",
      "photographer_id": 55570,
      "photographer_url": "https://www.pexels.com/@picjumbo-com-55570"
    },
    {
      "id": 374074,
      "src": {
        "tiny": "https://images.pexels.com/photos/374074/pexels-photo-374074.jpeg?auto=compress\u0026cs=tinysrgb\u0026dpr=1\u0026fit=crop\u0026h=200\u0026w=280",
        "large": "https://images.pexels.com/photos/374074/pexels-photo-374074.jpeg?auto=compress\u0026cs=tinysrgb\u0026h=650\u0026w=940",
        "small": "https://images.pexels.com/photos/374074/pexels-photo-374074.jpeg?auto=compress\u0026cs=tinysrgb\u0026h=130",
        "medium": "https://images.pexels.com/photos/374074/pexels-photo-374074.jpeg?auto=compress\u0026cs=tinysrgb\u0026h=350",
        "large2x": "https://images.pexels.com/photos/374074/pexels-photo-374074.jpeg?auto=compress\u0026cs=tinysrgb\u0026dpr=2\u0026h=650\u0026w=940",
        "original": "https://images.pexels.com/photos/374074/pexels-photo-374074.jpeg",
        "portrait": "https://images.pexels.com/photos/374074/pexels-photo-374074.jpeg?auto=compress\u0026cs=tinysrgb\u0026fit=crop\u0026h=1200\u0026w=800",
        "landscape": "https://images.pexels.com/photos/374074/pexels-photo-374074.jpeg?auto=compress\u0026cs=tinysrgb\u0026fit=crop\u0026h=627\u0026w=1200"
      },
      "url": "https://www.pexels.com/photo/computer-desk-electronics-indoors-374074/",
      "liked": false,
      "width": 5760,
      "height": 3840,
      "photographer": "Burst",
      "photographer_id": 121963,
      "photographer_url": "https://www.pexels.com/@burst"
    },
    {
      "id": 1229861,
      "src": {
        "tiny": "https://images.pexels.com/photos/1229861/pexels-photo-1229861.jpeg?auto=compress\u0026cs=tinysrgb\u0026dpr=1\u0026fit=crop\u0026h=200\u0026w=280",
        "large": "https://images.pexels.com/photos/1229861/pexels-photo-1229861.jpeg?auto=compress\u0026cs=tinysrgb\u0026h=650\u0026w=940",
        "small": "https://images.pexels.com/photos/1229861/pexels-photo-1229861.jpeg?auto=compress\u0026cs=tinysrgb\u0026h=130",
        "medium": "https://images.pexels.com/photos/1229861/pexels-photo-1229861.jpeg?auto=compress\u0026cs=tinysrgb\u0026h=350",
        "large2x": "https://images.pexels.com/photos/1229861/pexels-photo-1229861.jpeg?auto=compress\u0026cs=tinysrgb\u0026dpr=2\u0026h=650\u0026w=940",
        "original": "https://images.pexels.com/photos/1229861/pexels-photo-1229861.jpeg",
        "portrait": "https://images.pexels.com/photos/1229861/pexels-photo-1229861.jpeg?auto=compress\u0026cs=tinysrgb\u0026fit=crop\u0026h=1200\u0026w=800",
        "landscape": "https://images.pexels.com/photos/1229861/pexels-photo-1229861.jpeg?auto=compress\u0026cs=tinysrgb\u0026fit=crop\u0026h=627\u0026w=1200"
      },
      "url": "https://www.pexels.com/photo/silver-and-black-laptop-computer-1229861/",
      "liked": false,
      "width": 6000,
      "height": 4000,
      "photographer": "Hasan Albari",
      "photographer_id": 162689,
      "photographer_url": "https://www.pexels.com/@hasanalbari"
    },
    {
      "id": 18105,
      "src": {
        "tiny": "https://images.pexels.com/photos/18105/pexels-photo.jpg?auto=compress\u0026cs=tinysrgb\u0026dpr=1\u0026fit=crop\u0026h=200\u0026w=280",
        "large": "https://images.pexels.com/photos/18105/pexels-photo.jpg?auto=compress\u0026cs=tinysrgb\u0026h=650\u0026w=940",
        "small": "https://images.pexels.com/photos/18105/pexels-photo.jpg?auto=compress\u0026cs=tinysrgb\u0026h=130",
        "medium": "https://images.pexels.com/photos/18105/pexels-photo.jpg?auto=compress\u0026cs=tinysrgb\u0026h=350",
        "large2x": "https://images.pexels.com/photos/18105/pexels-photo.jpg?auto=compress\u0026cs=tinysrgb\u0026dpr=2\u0026h=650\u0026w=940",
        "original": "https://images.pexels.com/photos/18105/pexels-photo.jpg",
        "portrait": "https://images.pexels.com/photos/18105/pexels-photo.jpg?auto=compress\u0026cs=tinysrgb\u0026fit=crop\u0026h=1200\u0026w=800",
        "landscape": "https://images.pexels.com/photos/18105/pexels-photo.jpg?auto=compress\u0026cs=tinysrgb\u0026fit=crop\u0026h=627\u0026w=1200"
      },
      "url": "https://www.pexels.com/photo/laptop-macbook-pro-office-computer-18105/",
      "liked": false,
      "width": 5184,
      "height": 3456,
      "photographer": "karsten madsen",
      "photographer_id": 1540,
      "photographer_url": "https://www.pexels.com/@morningtrain"
    },
    {
      "id": 34088,
      "src": {
        "tiny": "https://images.pexels.com/photos/34088/pexels-photo.jpg?auto=compress\u0026cs=tinysrgb\u0026dpr=1\u0026fit=crop\u0026h=200\u0026w=280",
        "large": "https://images.pexels.com/photos/34088/pexels-photo.jpg?auto=compress\u0026cs=tinysrgb\u0026h=650\u0026w=940",
        "small": "https://images.pexels.com/photos/34088/pexels-photo.jpg?auto=compress\u0026cs=tinysrgb\u0026h=130",
        "medium": "https://images.pexels.com/photos/34088/pexels-photo.jpg?auto=compress\u0026cs=tinysrgb\u0026h=350",
        "large2x": "https://images.pexels.com/photos/34088/pexels-photo.jpg?auto=compress\u0026cs=tinysrgb\u0026dpr=2\u0026h=650\u0026w=940",
        "original": "https://images.pexels.com/photos/34088/pexels-photo.jpg",
        "portrait": "https://images.pexels.com/photos/34088/pexels-photo.jpg?auto=compress\u0026cs=tinysrgb\u0026fit=crop\u0026h=1200\u0026w=800",
        "landscape": "https://images.pexels.com/photos/34088/pexels-photo.jpg?auto=compress\u0026cs=tinysrgb\u0026fit=crop\u0026h=627\u0026w=1200"
      },
      "url": "https://www.pexels.com/photo/iphone-notebook-pen-working-34088/",
      "liked": false,
      "width": 5472,
      "height": 3648,
      "photographer": "Negative Space",
      "photographer_id": 3738,
      "photographer_url": "https://www.pexels.com/@negativespace"
    }
  ],
  "per_page": 6,
  "next_page": "https://api.pexels.com/v1/search/?page=2\u0026per_page=6\u0026query=laptop",
  "total_results": 2735
}
